\boolfalse {citerequest}\boolfalse {citetracker}\boolfalse {pagetracker}\boolfalse {backtracker}\relax 
\defcounter {refsection}{0}\relax 
\contentsline {figure}{\numberline {1}{\ignorespaces CaffeNet Network\relax }}{6}{figure.caption.3}
\defcounter {refsection}{0}\relax 
\contentsline {figure}{\numberline {2}{\ignorespaces GOTURN Network\relax }}{6}{figure.caption.3}
\defcounter {refsection}{0}\relax 
\contentsline {figure}{\numberline {3}{\ignorespaces Comparison of GOTURN performance on different GPU's.\relax }}{7}{figure.caption.4}
\defcounter {refsection}{0}\relax 
\contentsline {figure}{\numberline {4}{\ignorespaces Plot of generated HDF5 data\relax }}{9}{figure.caption.5}
\defcounter {refsection}{0}\relax 
\contentsline {figure}{\numberline {5}{\ignorespaces Network used to train model.\relax }}{10}{figure.caption.6}
\defcounter {refsection}{0}\relax 
\contentsline {figure}{\numberline {6}{\ignorespaces Accuracy after training and testing.\relax }}{11}{figure.caption.7}
\defcounter {refsection}{0}\relax 
\contentsline {figure}{\numberline {7}{\ignorespaces Network Used for classification after deployment.\relax }}{12}{figure.caption.8}
\defcounter {refsection}{0}\relax 
\contentsline {figure}{\numberline {8}{\ignorespaces Classifying random data using trained model.\relax }}{12}{figure.caption.9}
\defcounter {refsection}{0}\relax 
\contentsline {figure}{\numberline {9}{\ignorespaces GOTURN Original Network\relax }}{14}{figure.caption.10}
\defcounter {refsection}{0}\relax 
\contentsline {figure}{\numberline {10}{\ignorespaces GOTURN Network with IMU\relax }}{14}{figure.caption.10}
